{
	"app_name": "6002",
	"app_service_base": "revo-data-lake/source/",
	"app_ui_base": "revo-data-lake/source/UI/",
	"app_base": "revo-data-lake/",
	"app_scripts": "revo-data-lake/scripts/",
	"lambda_package": "revo-data-lake/source/resources/",
	"s3_key_prefix": "code/RDC/QA",
	"cloud_formation_account": "a0022",
	"cloud_formation_env": "q",
	"lambda_config_s3_path": "config/RDC/QA/",
	"stack_name": "aws-a0022-usw2-00-q-cfs-shrd-rdc-deploy01",
	"Project_Code": "9904ZS3610",
	"cloud_formation_path": "revo-data-lake/CloudFormation",
	"libraries": "libraries/",
	"cloud_formation_files":[
		"DataCatalogTemplate.yml",
		"DataCatalogLambda.yml",
		"DataCatalogClientStage.yml",
		"DataCatalogBatch.yml",
		"DataCatalogApi.yml",
		"DataCatalogApiStaticContent1",
		"DataCatalogApiStaticContent2",
		"DataCatalogApiStaticContent3"
	],
	"template_name": "template-export"
}